…
``` r
output = vector("list", length = 500)

for (i in 1:500){
  
  output[[i]] = sim_regression(n_subj = 30)
  
}

output |> 
  bind_rows()
```

    ## # A tibble: 500 × 2
    ##    beta0_hat beta1_hat
    ##        <dbl>     <dbl>
    ##  1      1.75      3.15
    ##  2      2.01      2.87
    ##  3      1.92      3.19
    ##  4      2.48      2.89
    ##  5      2.07      3.16
    ##  6      1.67      3.20
    ##  7      2.21      2.84
    ##  8      2.20      2.78
    ##  9      1.82      2.96
    ## 10      2.11      2.77
    ## # ℹ 490 more rows
…
